Name,Sex,BirthDate,Age,Division,Equipment,WeightClassKg,BodyweightKg,Bench1Kg,Bench2Kg,Bench3Kg,Best3BenchKg,Deadlift1Kg,Deadlift2Kg,Deadlift3Kg,Best3DeadliftKg,TotalKg,Event,Place,Tested
John Lamboley,M,1941-07-30,67,M_MEM_6_AAPF,Multi-ply,82.5,78.1,131.54,-138.35,138.35,138.35,,,,,138.35,B,1,Yes
Joe Somma,M,1964-02-17,44,M_MEM_1_AAPF,Multi-ply,82.5,80.8,165.56,174.63,-183.7,174.63,,,,,174.63,B,1,Yes
Daniel McCarron,M,1975-04-03,33,M_OEM_AAPF,Multi-ply,100,94,113.4,136.08,,136.08,,,,,136.08,B,3,Yes
Jason Woolsey,M,1978-12-19,30,M_OEM_AAPF,Multi-ply,100,98.7,136.08,149.69,-165.56,149.69,,,,,149.69,B,2,Yes
Pete Radlowski,M,1984-11-13,24,M_OEM_AAPF,Multi-ply,100,100,165.56,-183.7,192.78,192.78,,,,,192.78,B,1,Yes
Thomas Jacobs,M,1986-02-25,22,M_OEM_AAPF,Multi-ply,110,110,-238.14,-247.21,-247.21,,,,,,,B,DQ,Yes
Tony Chirico,M,1970-11-08,38,M_OEM_AAPF,Multi-ply,125,122.7,-129.27,129.27,138.35,138.35,,,,,138.35,B,1,Yes
Steve Barton,M,1982-02-11,27,M_OEM_AAPF,Multi-ply,90,88,-183.7,-183.7,-183.7,,,,,,,B,DQ,Yes
Jennifer Gimmell,F,1981-10-09,27,F_OEM_AAPF,Multi-ply,90,88.7,-92.99,-92.99,-102.06,,,,,,,B,DQ,Yes
Bama Hibbing,M,1968-11-05,40,M_MEM_1_APF,Multi-ply,90,87,136.08,170.1,-174.63,170.1,,,,,170.1,B,1,
Jeff Bishop,M,1963-04-12,45,M_MEM_2_APF,Multi-ply,100,99.6,176.9,188.24,-199.58,188.24,,,,,188.24,B,1,
Alex Camacho,M,1987-03-15,21,M_OEM_APF,Multi-ply,125,122.5,138.35,156.49,-174.63,156.49,,,,,156.49,B,1,
Paul Harris,M,1972-02-11,37,M_OEM_APF,Multi-ply,140,133,328.85,-365.14,-365.14,328.85,,,,,328.85,B,1,
Joe Somma,M,1964-02-17,44,M_MEM_1_AAPF,Multi-ply,82.5,80.8,,,,,197.31,206.38,-210.92,206.38,206.38,D,1,Yes
Daniel McCarron,M,1975-04-03,33,M_OEM_AAPF,Multi-ply,100,94,,,,,215.46,238.14,,238.14,238.14,D,2,Yes
Jason Woolsey,M,1978-12-19,30,M_OEM_AAPF,Multi-ply,100,98.7,,,,,219.99,238.14,-249.48,238.14,238.14,D,3,Yes
Pete Radlowski,M,1984-11-13,24,M_OEM_AAPF,Multi-ply,100,100,,,,,235.87,272.16,-294.84,272.16,272.16,D,1,Yes
Jose Molero,M,1986-11-22,22,M_OEM_AAPF,Multi-ply,110,103.6,,,,,197.31,-219.99,-219.99,197.31,197.31,D,2,Yes
Thomas Jacobs,M,1986-02-25,22,M_OEM_AAPF,Multi-ply,110,110,,,,,278.96,294.84,303.91,303.91,303.91,D,1,Yes
Aditya Nayar,M,1987-11-30,21,M_OEM_AAPF,Multi-ply,90,88.9,,,,,181.44,208.65,217.72,217.72,217.72,D,1,Yes
Jennifer Gimmell,F,1981-10-09,27,F_OEM_AAPF,Multi-ply,90,88.7,,,,,124.74,136.08,147.42,147.42,147.42,D,1,Yes
Bama Hibbing,M,1968-11-05,40,M_MEM_1_APF,Multi-ply,90,87,,,,,213.19,235.87,-244.94,235.87,235.87,D,1,
Jeff Bishop,M,1963-04-12,45,M_MEM_2_APF,Multi-ply,100,99.6,,,,,238.14,260.82,272.16,272.16,272.16,D,1,
Jason Patrick,M,1971-11-26,37,M_OEM_APF,Multi-ply,125,117.8,,,,,353.8,-376.48,-376.48,353.8,353.8,D,1,
Alex Camacho,M,1987-03-15,21,M_OEM_APF,Multi-ply,125,122.5,,,,,249.48,263.08,278.96,278.96,278.96,D,2,
Pete Arroyo,M,1979-06-10,29,M_OEM_APF,Multi-ply,140,132.5,,,,,263.08,,,263.08,263.08,D,2,
Rob Simnick,M,1981-07-06,27,M_OEM_APF,Multi-ply,140,130.2,,,,,272.16,285.76,-297.1,285.76,285.76,D,1,
John Hussey,M,1991-11-23,17,M_TEM_2_APF,Multi-ply,100,97,,,,,181.44,-199.58,199.58,199.58,199.58,D,2,
Corey Cavitt,M,1992-10-11,16,M_TEM_2_APF,Multi-ply,90,87.8,,,,,195.04,-215.46,-215.46,195.04,195.04,D,1,
