Place,Name,Sex,Event,Division,WeightClassKg,Equipment,BirthYear,State,BodyweightKg,Squat1Kg,Squat2Kg,Squat3Kg,Best3SquatKg,Bench1Kg,Bench2Kg,Bench3Kg,Best3BenchKg,Deadlift1Kg,Deadlift2Kg,Deadlift3Kg,Best3DeadliftKg,TotalKg,Age,BirthDate
DQ,Patricia Southerland,F,B,F-O,63,Single-ply,1988,MS,62.7,,,,,-135,-135,-135,,,,,,,,
1,Joshua Smith,M,B,MR-O,105,Raw,1982,MS,104.1,,,,,-135,142.5,-147.5,142.5,,,,,142.5,,
1,Hunter Little,M,B,MR-O,120,Raw,1999,MS,118.3,,,,,142.5,145,-150,145,,,,,145,,
1,Trinity Preston,F,SBD,F-O,63,Single-ply,2002,MS,61.1,102.5,110,122.5,122.5,57.5,-62.5,-62.5,57.5,140,150,-160,150,330,,
DQ,Kaitlyn Kirk,F,SBD,F-O,63,Single-ply,2000,MS,58.4,-107.5,-107.5,-112.5,,50,-52.5,-52.5,50,87.5,95,102.5,102.5,,,
DQ,Breana Massey,F,SBD,F-O,72,Single-ply,2001,MS,70.3,-115,-115,-115,,-47.5,-47.5,-47.5,,87.5,92.5,100,100,,,
1,Melinda Farve,F,SBD,FR-O,57,Raw,1986,MS,56.9,75,-85,-85,75,40,42.5,-45,42.5,95,105,110,110,227.5,,
1,Ashley Howell,F,SBD,FR-O,63,Raw,1987,TN,59.1,122.5,127.5,130,130,65,-67.5,-67.5,65,127.5,135,142.5,142.5,337.5,,
2,Leiloni Davenport,F,SBD,FR-O,63,Raw,1995,MS,62.9,85,95,-100,95,42.5,45,-47.5,45,97.5,105,110,110,250,,
DQ,Madison Watts,F,SBD,FR-O,72,Raw,1992,MS,68.2,-85,-85,-85,,52.5,55,57.5,57.5,97.5,105,110,110,,,
1,Misty Trosclair,F,SBD,FR-O,84+,Raw,1977,MS,97.5,105,115,-125,115,65,70,-75,70,142.5,152.5,162.5,162.5,347.5,,
1,Christopher Tran,M,SBD,M-O,59,Single-ply,1988,MS,59,245,257.5,-265,257.5,142.5,150,-155,150,240,255,-257.5,255,662.5,,
2,Cordarius Harris,M,SBD,M-O,59,Single-ply,2000,MS,58.2,137.5,145,155,155,97.5,107.5,110,110,150,155,165,165,430,,
1,Calvin Dukes,M,SBD,M-O,74,Single-ply,2000,MS,73.1,-227.5,-227.5,227.5,227.5,115,127.5,-132.5,127.5,227.5,235,240,240,595,,
1,Dillan Berryman,M,SBD,M-O,83,Single-ply,1998,MS,81.5,225,237.5,245,245,137.5,145,150,150,222.5,-235,235,235,630,,
1,Xavian Herod,M,SBD,M-O,105,Single-ply,2000,MS,104.4,227.5,-240,-240,227.5,137.5,142.5,152.5,152.5,227.5,240,250,250,630,,
2,Benjamin Rivers,M,SBD,M-O,105,Single-ply,2000,MS,102.4,212.5,217.5,-220,217.5,127.5,132.5,-137.5,132.5,205,215,220,220,570,,
3,Gabriel Pipkin,M,SBD,M-O,105,Single-ply,2000,AL,96.8,-202.5,202.5,-207.5,202.5,-130,130,132.5,132.5,185,192.5,200,200,535,,
1,Robert Smith,M,SBD,M-O,120+,Single-ply,1957,MS,137.1,195,215,-230,215,155,160,165,165,195,222.5,230,230,610,,
1,Everett Daughtry,M,SBD,MR-M1a,83,Raw,1974,MS,76.8,172.5,177.5,182.5,182.5,97.5,102.5,-107.5,102.5,182.5,195,205,205,490,,
1,Daryl Haskew,M,SBD,MR-M4a,105,Raw,1947,AL,102.8,92.5,105,110,110,92.5,100,,100,130,137.5,,137.5,347.5,,
1,Jaylen Boyd,M,SBD,MR-O,59,Raw,1996,MS,58,162.5,-175,175,175,87.5,95,-102.5,95,190,200,,200,470,,
1,Alexander Canton,M,SBD,MR-O,74,Raw,1991,LA,74,197.5,-210,-210,197.5,152.5,157.5,-160,157.5,-205,212.5,-227.5,212.5,567.5,,
2,Paul Acosta,M,SBD,MR-O,74,Raw,2003,TX,74,165,170,-175,170,92.5,100,-102.5,100,-175,185,195,195,465,,
3,Nicolas Johnson,M,SBD,MR-O,74,Raw,2002,MS,66.4,125,140,142.5,142.5,85,-95,-95,85,-185,-190,190,190,417.5,,
1,Rayyan Shaikh,M,SBD,MR-O,83,Raw,2002,TN,82.8,155,160,162.5,162.5,102.5,105,-110,105,210,220,227.5,227.5,495,,
2,Everett Daughtry,M,SBD,MR-O,83,Raw,1974,MS,76.8,172.5,177.5,182.5,182.5,97.5,102.5,-107.5,102.5,182.5,195,205,205,490,,
3,Justin Boleware,M,SBD,MR-O,83,Raw,1995,MS,81,180,-185,-187.5,180,135,140,-142.5,140,160,165,170,170,490,,
4,William Boren,M,SBD,MR-O,83,Raw,1992,MS,79.2,147.5,155,162.5,162.5,90,97.5,102.5,102.5,185,192.5,200,200,465,,
5,Utkarsh Thakur,M,SBD,MR-O,83,Raw,1995,MS,75.2,97.5,-105,-105,97.5,52.5,57.5,-60,57.5,112.5,120,127.5,127.5,282.5,,
1,Aaron Rainey,M,SBD,MR-O,93,Raw,1997,MS,92.9,215,225,,225,142.5,150,-160,150,255,270,-277.5,270,645,,
2,Dylan Kittrell,M,SBD,MR-O,93,Raw,1993,MS,90,-192.5,210,215,215,125,135,145,145,235,245,260,260,620,,
3,Aleksander Zemtsov,M,SBD,MR-O,93,Raw,1995,MS,84.3,155,165,-175,165,110,117.5,-122.5,117.5,180,190,200,200,482.5,,
4,Altman Biggs,M,SBD,MR-O,93,Raw,2000,MS,87.6,165,-172.5,-185,165,107.5,115,-122.5,115,172.5,185,192.5,192.5,472.5,,
5,William Bustin,M,SBD,MR-O,93,Raw,2000,MS,85.3,130,140,150,150,95,105,-112.5,105,162.5,182.5,195,195,450,,
1,Jeremy Jallans,M,SBD,MR-O,105,Raw,1981,LA,101.6,215,-227.5,227.5,227.5,150,162.5,170,170,227.5,240,-250,240,637.5,,
2,Johnathon Pogodzinski,M,SBD,MR-O,105,Raw,1990,TN,97.6,-180,187.5,192.5,192.5,110,117.5,127.5,127.5,227.5,235,255,255,575,,
3,Daryl Haskew,M,SBD,MR-O,105,Raw,1947,AL,102.8,92.5,105,110,110,92.5,100,,100,130,137.5,,137.5,347.5,,
1,Paul Acosta,M,SBD,MR-T1,74,Raw,2003,TX,74,165,170,-175,170,92.5,100,-102.5,100,-175,185,195,195,465,,
1,Rayyan Shaikh,M,SBD,MR-T2,83,Raw,2002,TN,82.8,155,160,162.5,162.5,102.5,105,-110,105,210,220,227.5,227.5,495,,
1,William Bustin,M,SBD,MR-T3,93,Raw,2000,MS,85.3,130,140,150,150,95,105,-112.5,105,162.5,182.5,195,195,450,,
1,Dylan Williamson,M,SBD,MR-Y3,83,Raw,2007,MS,80.8,82.5,90,92.5,92.5,35,37.5,40,40,82.5,90,-100,90,222.5,,
